Final Analysis
…
## fit warnings:
## fixed-effect model matrix is rank deficient so dropping 2 columns / coefficients

Plotting and analysis of Drivesim Data

driving_perf_by_distance$Trial <- driving_perf_by_distance$Trial %>% as.character()

driving_perf_by_distance %>% group_by(Trial, Run, bin_number) %>% select (7:16) %>% summarise_at(vars(avg_speed:sd_steering),list(mean = ~mean(.),sd = ~sd(.),sem = (~sd(.)/sqrt(n())))) %>% arrange(Trial)

## Adding missing grouping variables: `Trial`, `Run`, `bin_number`

## # A tibble: 1,490 x 33
## # Groups:   Trial, Run [5]
##    Trial   Run bin_number avg_speed_mean sd_speed_mean avg_lanepos_mean
##    <chr> <dbl>      <dbl>          <dbl>         <dbl>            <dbl>
##  1 1         1          3           88.8         1.40             -4.54
##  2 1         1          4           92.0         0.903            -5.32
##  3 1         1          5           94.6         0.752            -5.06
##  4 1         1          6           97.1         0.544            -4.17
##  5 1         1          7           97.6         0.446            -5.51
##  6 1         1          8           97.6         0.350            -6.08
##  7 1         1          9           97.5         0.297            -5.42
##  8 1         1         10           97.7         0.254            -4.32
##  9 1         1         11           98.1         0.169            -4.70
## 10 1         1         12           98.4         0.156            -7.15
## # ... with 1,480 more rows, and 27 more variables: sd_lanepos_mean <dbl>,
## #   avg_throttle_mean <dbl>, sd_throttle_mean <dbl>, avg_brake_mean <dbl>,
## #   sd_brake_mean <dbl>, avg_steering_mean <dbl>, sd_steering_mean <dbl>,
## #   avg_speed_sd <dbl>, sd_speed_sd <dbl>, avg_lanepos_sd <dbl>,
## #   sd_lanepos_sd <dbl>, avg_throttle_sd <dbl>, sd_throttle_sd <dbl>,
## #   avg_brake_sd <dbl>, sd_brake_sd <dbl>, avg_steering_sd <dbl>,
## #   sd_steering_sd <dbl>, avg_speed_sem <dbl>, sd_speed_sem <dbl>,
## #   avg_lanepos_sem <dbl>, sd_lanepos_sem <dbl>, avg_throttle_sem <dbl>,
## #   sd_throttle_sem <dbl>, avg_brake_sem <dbl>, sd_brake_sem <dbl>,
…
Attention task Data

##Overall Performance
attn_analysis <- attention_performance_database %>% 
    group_by(ID, Session, Run, target_deviation) %>%
    summarise(mean_RT = mean(reaction_time), 
              sd_RT = sd(reaction_time), 
              count = n(),
              percent_correct = mean(response_type == "Correct", na.rm = TRUE), 
              percent_miss = mean(response_type == "Miss", na.rm = TRUE),
              percent_incorrect = mean(response_type == "Incorrect", na.rm = TRUE)) %>%
    mutate(Timepoint = str_c(Session,Run, sep = "_"))
attn_analysis

## # A tibble: 204 x 11
## # Groups:   ID, Session, Run [68]
##    ID    Session   Run target_deviation mean_RT sd_RT count percent_correct
##    <chr> <chr>   <dbl>            <dbl>   <dbl> <dbl> <int>           <dbl>
##  1 AL    1           1               10   0.852 0.347    40           0.95 
##  2 AL    1           1               25   0.858 0.349    40           0.95 
##  3 AL    1           1               35   1.00  0.409    40           0.875
##  4 AL    1           2               10   0.742 0.187    40           0.975
##  5 AL    1           2               25   0.747 0.179    40           0.925
##  6 AL    1           2               35   0.871 0.276    40           0.975
##  7 AL    2           1               10   0.877 0.407    40           0.925
##  8 AL    2           1               25   0.856 0.247    40           0.975
##  9 AL    2           1               35   0.919 0.278    40           0.975
## 10 AL    2           2               10   0.748 0.160    40           0.975
## # ... with 194 more rows, and 3 more variables: percent_miss <dbl>,
## #   percent_incorrect <dbl>, Timepoint <chr>

##Performance based on congruency
attn_analysis_withcongruency <- attention_performance_database %>%
    group_by(ID, Session, Run, congruency, target_deviation) %>% 
    summarise(mean_RT = mean(reaction_time), 
              sd_RT = sd(reaction_time), 
              count = n(),
              percent_correct = mean(response_type == "Correct", na.rm = TRUE), 
              percent_miss = mean(response_type == "Miss", na.rm = TRUE),
              percent_incorrect = mean(response_type == "Incorrect", na.rm = TRUE)) %>%
    mutate(Timepoint = str_c(Session,Run, sep = "_"))

attn_analysis_withcongruency

## # A tibble: 408 x 12
## # Groups:   ID, Session, Run, congruency [136]
##    ID    Session   Run congruency target_deviation mean_RT sd_RT count
##    <chr> <chr>   <dbl> <chr>                 <dbl>   <dbl> <dbl> <int>
##  1 AL    1           1 Congruent                10   0.937 0.462    20
##  2 AL    1           1 Congruent                25   0.851 0.358    20
##  3 AL    1           1 Congruent                35   1.05  0.532    20
##  4 AL    1           1 Incongrue~               10   0.767 0.139    20
##  5 AL    1           1 Incongrue~               25   0.865 0.349    20
##  6 AL    1           1 Incongrue~               35   0.957 0.237    20
##  7 AL    1           2 Congruent                10   0.687 0.107    20
##  8 AL    1           2 Congruent                25   0.766 0.196    20
##  9 AL    1           2 Congruent                35   0.898 0.353    20
## 10 AL    1           2 Incongrue~               10   0.797 0.232    20
## # ... with 398 more rows, and 4 more variables: percent_correct <dbl>,
## #   percent_miss <dbl>, percent_incorrect <dbl>, Timepoint <chr>
…
## Warning: Removed 142 rows containing non-finite values (stat_boxplot).

attention_performance_database %>% mutate(Timepoint = str_c(Session,Run, sep = "_")) %>%
    filter(response_type == "Correct") %>% 
    filter(Session != "F") %>% 
    group_by(ID, Run, Session, congruency) %>%
    summarise(n(), mean_RT = mean(reaction_time), sd_RT = sd(reaction_time)) %>%
    write.csv(file = "Analysis csvs/attention_taskperf_reactiontime.csv")

attention_performance_database %>%
    filter(Session != "F") %>% 
    group_by(ID, Run, Session, congruency, response_type) %>%
    summarise(n())

## # A tibble: 240 x 6
## # Groups:   ID, Run, Session, congruency [110]
##    ID    Run   Session congruency  response_type `n()`
##    <chr> <fct> <fct>   <chr>       <chr>         <int>
##  1 AL    1     1       Congruent   Correct          52
##  2 AL    1     1       Congruent   Incorrect         2
##  3 AL    1     1       Congruent   Miss              6
##  4 AL    1     1       Incongruent Correct          59
##  5 AL    1     1       Incongruent Miss              1
##  6 AL    1     2       Congruent   Correct          58
##  7 AL    1     2       Congruent   Miss              2
##  8 AL    1     2       Incongruent Correct          57
##  9 AL    1     2       Incongruent Miss              3
## 10 AL    2     1       Congruent   Correct          56
## # ... with 230 more rows
…
